http_interactions:
- request:
    method: GET
    uri: https://vectorbyte.crc.nd.edu/portal/api/vecdynbyprovider?format=json
  response:
    status: 200
    headers:
      Allow: GET, HEAD, OPTIONS
      Connection: keep-alive
      Content-Length: '23681'
      Content-Type: application/json
      Date: Fri, 10 Oct 2025 10:41:45 GMT
      Referrer-Policy: same-origin
      Server: nginx
      Strict-Transport-Security: max-age=31536000
      Vary: Accept, Origin, Cookie
      X-Content-Type-Options:
      - nosniff
      - nosniff
      X-Frame-Options: DENY
      X-XSS-Protection: 1; mode=block
    body:
      string: '{"data":{"count":467,"next":"http://vectorbyte.crc.nd.edu/portal/api/vecdynbyprovider/?format=json&page=2","previous":null,"results":[{"Id":216,"SpeciesName":["Aedes
        abserratus","Aedes aurifer","Aedes canadensis complex","Aedes cinereus","Aedes
        grossbecki","Aedes japonicus complex","Aedes nigromaculis","Aedes sollicitans","Aedes
        sp.","Aedes sticticus","Aedes thibaulti","Aedes triseriatus","Aedes trivittatus","Aedes
        vexans","Anopheles barberi","Anopheles crucians","Anopheles punctipennis","Anopheles
        quadrimaculatus","Anopheles sp.","Anopheles walkeri","BLANK","Coquillettidia
        perturbans","Culex pipiens morphological group","Culex salinarius","Culex
        sp.","Culex tarsalis","Culex territans","Culicidae","Culiseta inornata","Culiseta
        melanura","Culiseta sp.","Psorophora ciliata","Psorophora cyanescens","Psorophora
        ferox","Psorophora howardii","Psorophora sp.","Uranotaenia sapphirina"],"Location":["None"],"Provider":null,"Title":"2023
        Mosquito Surveillance St Joseph County Indiana USA","Tags":null,"Sites":["St.
        Joseph County","South Bend","IN"],"Collections":208,"Years":["2023"],"CollectionMethods":["CDCLIGHT
        co2;light","GRAVID none","RESTING BOX CATCH none"],"EmbargoReleaseDate":""},{"Id":217,"SpeciesName":["Aedes
        cinereus","Aedes dorsalis","Aedes fitchii","Aedes increpitus","Aedes melanimon","Aedes
        nigromaculis","Aedes sierrensis","Aedes sticticus","Aedes vexans","Anopheles
        freeborni","BLANK","Coquillettidia perturbans","Culex pipiens","Culex tarsalis","Culiseta
        incidens","Culiseta inornata","Culiseta minnesotae"],"Location":[null],"Provider":null,"Title":"2021-2023
        Ada, Idaho","Tags":null,"Sites":["Ada County, Idaho"],"Collections":5244,"Years":["2021","2022","2023"],"CollectionMethods":["EVS
        co2;light","GRAVID co2;light"],"EmbargoReleaseDate":""},{"Id":218,"SpeciesName":["Aedes
        aegypti","Aedes albopictus","Aedes atlanticus","Aedes infirmatus","Aedes sp.","Aedes
        taeniorhynchus","Aedes vexans","Anopheles bradleyi","Anopheles crucians complex","Anopheles
        punctipennis","Anopheles quadrimaculatus","Anopheles sp.","BLANK","Coquillettidia
        perturbans","Culex erraticus","Culex nigripalpus","Culex quinquefasciatus","Culex
        sp.","Culiseta melanura","Mansonia genus sp.","Mansonia titillans","Melanoconion
        Sp.","Psorophora ciliata","Psorophora columbiae","Psorophora ferox","Psorophora
        sp.","Toxorhynchites rutilus","Unknown unknown","Uranotaenia lowii","Uranotaenia
        sapphirina","Uranotaenia sp.","Wyeomyia sp."],"Location":[null],"Provider":null,"Title":"2010-2019
        Collier County","Tags":null,"Sites":["Collier County, Florida, USA"],"Collections":40836,"Years":["2016","2017","2018","2019","2010","2011","2012","2013","2014","2015"],"CollectionMethods":["BG-SENT
        bg-lure;co2","CDCLIGHT co2;light","NJLT octenol"],"EmbargoReleaseDate":""},{"Id":219,"SpeciesName":["Aedes
        albopictus","Aedes canadensis complex","Aedes cinereus","Aedes hendersoni","Aedes
        japonicus complex","Aedes sollicitans","Aedes sticticus","Aedes stimulans","Aedes
        triseriatus","Aedes trivittatus","Aedes vexans","Anopheles barberi","Anopheles
        punctipennis","Anopheles quadrimaculatus","Anopheles walkeri","BLANK","Coquillettidia
        perturbans","Culex erraticus","Culex pipiens","Culex restuans","Culex salinarius","Culex
        sp.","Culex tarsalis","Culex territans","Culiseta inornata","Culiseta melanura","Culiseta
        minnesotae","Orthopodomyia signifera","Psorophora ciliata","Psorophora columbiae","Psorophora
        ferox","Psorophora howardii","Unknown unknown","Uranotaenia sapphirina"],"Location":[null],"Provider":null,"Title":"2021-2023
        Mosquito Surveillance, Desplaines Valley Mosquito Abatement District (Chicago-land)","Tags":null,"Sites":["Des
        Plaines, Illionis, USA"],"Collections":4125,"Years":["2021","2022","2023"],"CollectionMethods":["GRAVID
        alfalfa infusion","NJLT light"],"EmbargoReleaseDate":""},{"Id":220,"SpeciesName":["Aedes
        aegypti","Aedes atlanticus","Aedes fulvus pallens","Aedes infirmatus","Aedes
        sollicitans","Aedes taeniorhynchus","Aedes triseriatus","Aedes vexans","Anopheles
        crucians","Anopheles perplexens","Anopheles punctipennis","Anopheles quadrimaculatus","Coquillettidia
        perturbans","Culex coronator","Culex erraticus","Culex nigripalpus","Culex
        pilosus","Culex quinquefasciatus","Culex restuans","Culex salinarius","Culiseta
        inornata","Culiseta melanura","Mansonia dyari","Mansonia titillans","Orthopodomyia
        signifera","Psorophora ciliata","Psorophora columbiae","Psorophora cyanescens","Psorophora
        ferox","Psorophora howardii","Uranotaenia lowii","Uranotaenia sapphirina","Wyeomyia
        mitchellii"],"Location":[null],"Provider":null,"Title":"2021-2022 Mosquito
        Surveillance, Hernando Florida","Tags":null,"Sites":["Hernando Country, Florida,
        USA"],"Collections":1084,"Years":["2021","2022"],"CollectionMethods":["CDCLIGHT
        light","GRAVID grass;chickenwaste"],"EmbargoReleaseDate":""},{"Id":221,"SpeciesName":["Aedes
        aegypti","Aedes albopictus","Aedes fulvus","Aedes infirmatus","Aedes sollicitans","Aedes
        taeniorhynchus","Aedes triseriatus","Aedes vexans","Anopheles crucians","Anopheles
        perplexens","Anopheles punctipennis","Anopheles quadrimaculatus","BLANK","Coquillettidia
        perturbans","Culex coronator","Culex erraticus","Culex nigripalpus","Culex
        quinquefasciatus","Culex restuans","Culex salinarius","Culiseta melanura","Mansonia
        dyari","Mansonia titillans","Orthopodomyia signifera","Psorophora ciliata","Psorophora
        columbiae","Psorophora cyanescens","Psorophora ferox","Psorophora howardii","Uranotaenia
        lowii","Uranotaenia sapphirina","Wyeomyia mitchellii","Wyeomyia vanduzeei"],"Location":[null],"Provider":null,"Title":"2023
        Mosquito Surveillance, Hernando Florida","Tags":null,"Sites":["Hernando County,
        FL, USA"],"Collections":538,"Years":["2023"],"CollectionMethods":["CDCLIGHT
        light","GRAVID grass;chickenwaste"],"EmbargoReleaseDate":""},{"Id":222,"SpeciesName":["Aedes
        aegypti","Aedes sierrensis","Aedes washinoi","Anopheles franciscanus","Anopheles
        hermsi","BLANK","Culex erythrothorax","Culex quinquefasciatus","Culex stigmatosoma","Culex
        tarsalis","Culex thriambus","Culiseta incidens","Culiseta inornata","Culiseta
        particeps","Orthopodomyia signifera"],"Location":[null],"Provider":null,"Title":"2023
        Mosquito Surveillance, Northwest Mosquito Control","Tags":null,"Sites":["Riverside
        County, California, USA"],"Collections":1083,"Years":["2023"],"CollectionMethods":["BGSENT
        co2","EVS co2","GRAVID hay or grass infusion"],"EmbargoReleaseDate":""},{"Id":223,"SpeciesName":["Aedes
        abserratus","Aedes aegypti","Aedes atropalpus","Aedes c. canadensis","Aedes
        cinereus","Aedes dorsalis","Aedes excrucians","Aedes fitchii","Aedes hendersoni","Aedes
        japonicus complex","Aedes sp.","Aedes sticticus","Aedes stimulans","Aedes
        triseriatus","Aedes trivittatus","Aedes vexans","Anopheles barberi","Anopheles
        perplexens","Anopheles punctipennis","Anopheles quadrimaculatus","Anopheles
        sp.","Anopheles walkeri","BLANK","Coquillettidia perturbans","Coquillettidia
        sp.","Culex erraticus","Culex pipiens","Culex pipiens morphological group","Culex
        restuans","Culex salinarius","Culex sp.","Culex tarsalis","Culex territans","Culiseta
        impatiens","Culiseta inornata","Culiseta morsitans","Culiseta sp.","Orthopodomyia
        signifera","Psorophora ciliata","Psorophora ferox","Psorophora horrida","Psorophora
        howardii","Psorophora sp.","Psorophora varipes","Uranotaenia sapphirina"],"Location":[null],"Provider":null,"Title":"2003-2006
        Mosquito Surveillance St Joseph County Indiana USA","Tags":null,"Sites":["St.
        Joseph County, Indiana, USA"],"Collections":1240,"Years":["2003","2004","2005","2006"],"CollectionMethods":["CDCLIGHT
        co2;light","CDCLIGHT light","GRAVID hay or grass infusion"],"EmbargoReleaseDate":""},{"Id":349,"SpeciesName":["Aedes
        abserratus","Aedes atropalpus","Aedes aurifer","Aedes canadensis complex","Aedes
        cinereus","Aedes dorsalis","Aedes excrucians","Aedes fitchii","Aedes flavescens","Aedes
        hendersoni","Aedes sollicitans","Aedes sp.","Aedes sticticus","Aedes stimulans","Aedes
        triseriatus","Aedes trivittatus","Aedes vexans","Anopheles barberi","Anopheles
        crucians","Anopheles punctipennis","Anopheles quadrimaculatus","Anopheles
        sp.","Anopheles walkeri","BLANK","Coquillettidia perturbans","Culex erraticus","Culex
        pipiens","Culex pipiens morphological group","Culex restuans","Culex salinarius","Culex
        sp.","Culex tarsalis","Culex territans","Culiseta inornata","Culiseta melanura","Culiseta
        minnesotae","Culiseta morsitans","Culiseta sp.","Orthopodomyia sp.","Psorophora
        ciliata","Psorophora columbiae","Psorophora cyanescens","Psorophora ferox","Psorophora
        sp.","Uranotaenia sapphirina"],"Location":[null],"Provider":null,"Title":"1976-1997
        Mosquito Surveillance, St Joseph County, Indiana, USA","Tags":null,"Sites":["St.
        Joseph County, Indiana"],"Collections":12675,"Years":["1976","1977","1978","1979","1980","1981","1982","1983","1984","1987","1989","1990","1991","1992","1993","1994","1995","1996","1997"],"CollectionMethods":["NJLT
        light"],"EmbargoReleaseDate":""},{"Id":350,"SpeciesName":["Chaetosiphon fragaefolii"],"Location":[null],"Provider":null,"Title":"Strawberry
        Aphid Seasonal Abundance in Six Strawberry Fields in Quebec, Canada (2014-2015)","Tags":null,"Sites":[null],"Collections":46,"Years":["2014","2015"],"CollectionMethods":["Sticky
        Trap and Pan Trap"],"EmbargoReleaseDate":""},{"Id":351,"SpeciesName":["Helicoverpa
        armigera"],"Location":[null],"Provider":null,"Title":"H. armigera collected
        over the Bohai by conventional light trap in 2002","Tags":null,"Sites":[null],"Collections":40,"Years":["2002"],"CollectionMethods":["Conventional
        light trap"],"EmbargoReleaseDate":""},{"Id":352,"SpeciesName":["Spodoptera
        frugiperda"],"Location":[null],"Provider":null,"Title":"Long term fall armyworm
        seasonal periodicity survey from French Guiana to Canada (1984-1986)","Tags":null,"Sites":["French
        Guiana","Gainesville, FL, USA","Guadeloupe","Homestead, FL, USA","Puerto Rico,
        USA","St. Hyacinthe, P.Q., Canada","Tifton, GA, USA","U.S. Virgin Islands"],"Collections":453,"Years":["1984","1985","1986"],"CollectionMethods":["Sex
        pheromone bucket trap"],"EmbargoReleaseDate":""},{"Id":353,"SpeciesName":["Aphididae"],"Location":[null],"Provider":null,"Title":"Total
        Aphids caught Weeks 25-36 of 2007-2010 in Tyrnava-Liminka, Finland in Yellow
        Pan Traps","Tags":null,"Sites":[null],"Collections":48,"Years":["2008","2009","2010","2007"],"CollectionMethods":["Yellow
        Pan Trap"],"EmbargoReleaseDate":""},{"Id":354,"SpeciesName":["Aphididae"],"Location":[null],"Provider":null,"Title":"Total
        Aphids caught Weeks 25-36 of 2007-2010 in Tyrnava-Liminka, Finland in Suction
        Traps","Tags":null,"Sites":[null],"Collections":48,"Years":["2008","2009","2010","2007"],"CollectionMethods":["Suction
        Trap"],"EmbargoReleaseDate":""},{"Id":355,"SpeciesName":["Aphididae"],"Location":[null],"Provider":null,"Title":"Total
        Aphids caught Annually 2000-2010 in Tyrnava-Liminka, Finland in Suction Traps","Tags":null,"Sites":[null],"Collections":11,"Years":["2000","2001","2002","2003","2004","2005","2006","2007","2008","2009","2010"],"CollectionMethods":["Suction
        Trap"],"EmbargoReleaseDate":""},{"Id":356,"SpeciesName":["Aphis craccivora","Macrosiphum
        euphorbiae","Myzus persicae","Rhopalosiphum maidis","Rhopalosiphum padi"],"Location":[null],"Provider":null,"Title":"Aphid
        Counts in Soybean Fields from the Summers of 1976 and 1978 in Urbana, Illinois","Tags":null,"Sites":[null],"Collections":72,"Years":["1976","1978"],"CollectionMethods":["Net
        Trap (One net in 1976, two nets in 1978)"],"EmbargoReleaseDate":""},{"Id":361,"SpeciesName":["Aphididae"],"Location":[null],"Provider":null,"Title":"Seasonal
        Abundance of Aphids in Progar, Serbia Caught in Yellow Water Traps (2011-2012)","Tags":null,"Sites":[null],"Collections":39,"Years":["2011","2012"],"CollectionMethods":["Yellow
        Water Trap in Alfalfa"],"EmbargoReleaseDate":""},{"Id":362,"SpeciesName":["Aphididae
        spp."],"Location":[null],"Provider":null,"Title":"Aphid Sampling of Infested
        Orange Leaves in Northeast Algeria (2013)","Tags":null,"Sites":[null],"Collections":8,"Years":["2013"],"CollectionMethods":["Controlled
        random sampling of 16 infested orange leaves"],"EmbargoReleaseDate":""},{"Id":363,"SpeciesName":["Aphididae
        spp."],"Location":[null],"Provider":null,"Title":"Aphid Sampling of Infested
        Mandarin Leaves in Northeast Algeria (2013)","Tags":null,"Sites":[null],"Collections":8,"Years":["2013"],"CollectionMethods":["Controlled
        random sampling of 16 infested mandarin leaves"],"EmbargoReleaseDate":""},{"Id":364,"SpeciesName":["Aphididae
        spp."],"Location":[null],"Provider":null,"Title":"Aphid Sampling of Infested
        Orange Shoots in Northeast Algeria (2013)","Tags":null,"Sites":[null],"Collections":6,"Years":["2012"],"CollectionMethods":["Controlled
        random sampling of 5 infested orange shoots"],"EmbargoReleaseDate":""},{"Id":365,"SpeciesName":["Aphididae
        spp."],"Location":[null],"Provider":null,"Title":"Aphid Sampling of Infested
        Mandarin Shoots in Northeast Algeria (2013)","Tags":null,"Sites":[null],"Collections":5,"Years":["2012"],"CollectionMethods":["Controlled
        random sampling of 5 infested mandarin shoots"],"EmbargoReleaseDate":""},{"Id":366,"SpeciesName":["Myzus
        spp.","Potato Aphids"],"Location":[null],"Provider":null,"Title":"Seasonal
        Aphid collection in Northeastern Oregon using bucket traps (2006-2011)","Tags":null,"Sites":[null],"Collections":72,"Years":["2006","2007","2008","2009","2010","2011"],"CollectionMethods":["Bucket
        Traps"],"EmbargoReleaseDate":""},{"Id":367,"SpeciesName":["dermacentor variabilis"],"Location":[null],"Provider":null,"Title":"Tick
        Drag Collection in Potato Creek State Park, IN (1997-1998)","Tags":null,"Sites":[null],"Collections":25,"Years":["1997","1998"],"CollectionMethods":["tick
        drag"],"EmbargoReleaseDate":""},{"Id":368,"SpeciesName":["Aphididae spp."],"Location":[null],"Provider":null,"Title":"Sao
        Paulo State Aphididae collection for 18 months in Apricot Orchard","Tags":null,"Sites":[null],"Collections":18,"Years":["2010","2011"],"CollectionMethods":["yellow
        sticky, yellow water-pan and green tile traps"],"EmbargoReleaseDate":""},{"Id":369,"SpeciesName":["Helicoverpa
        armigera"],"Location":[null],"Provider":null,"Title":"Daily Radar Catches
        of 2nd generation H. armigera moths at Langfang (2001-2002)","Tags":null,"Sites":[null],"Collections":64,"Years":["2001","2002"],"CollectionMethods":["Searchlight
        Trap"],"EmbargoReleaseDate":""},{"Id":370,"SpeciesName":["Scaphoideus Scaphoideus
        titanus"],"Location":[null],"Provider":null,"Title":"Mean of Nymphs during
        June-July in 2009","Tags":null,"Sites":[null],"Collections":8,"Years":["2009"],"CollectionMethods":["sticky
        traps"],"EmbargoReleaseDate":""},{"Id":371,"SpeciesName":["Scaphoideus Scaphoideus
        titanus"],"Location":[null],"Provider":null,"Title":"Mean of Adults during
        June-July in 2009","Tags":null,"Sites":[null],"Collections":15,"Years":["2009"],"CollectionMethods":["sticky
        traps"],"EmbargoReleaseDate":""},{"Id":372,"SpeciesName":["Scaphoideus Scaphoideus
        titanus"],"Location":[null],"Provider":null,"Title":"Mean of Nymphs during
        June-August in 2010","Tags":null,"Sites":[null],"Collections":11,"Years":["2010"],"CollectionMethods":["sticky
        traps"],"EmbargoReleaseDate":""},{"Id":373,"SpeciesName":["Scaphoideus Scaphoideus
        titanus"],"Location":[null],"Provider":null,"Title":"Mean of Adults during
        June-August in 2010","Tags":null,"Sites":[null],"Collections":17,"Years":["2010"],"CollectionMethods":["sticky
        traps"],"EmbargoReleaseDate":""},{"Id":374,"SpeciesName":["Scaphoideus Scaphoideus
        titanus"],"Location":[null],"Provider":null,"Title":"Mean of Nymphs during
        June-September in 2011","Tags":null,"Sites":[null],"Collections":13,"Years":["2011"],"CollectionMethods":["sticky
        traps"],"EmbargoReleaseDate":""},{"Id":390,"SpeciesName":["Cicadellidae Cicadellidae","Graphocephala
        Graphocephala versuta","Homalodisca Homalodisca vitripennis","Sophonia Sophonia
        orientalis"],"Location":[null],"Provider":null,"Title":"Seasonal Abundance
        of both Pearl River and Stone County in 2019","Tags":null,"Sites":[null],"Collections":11,"Years":["2019"],"CollectionMethods":["Sticky
        Trap"],"EmbargoReleaseDate":""},{"Id":391,"SpeciesName":["Cicadellidae Cicadellidae","Graphocephala
        Graphocephala versuta","Homalodisca Homalodisca vitripennis","Sophonia Sophonia
        orientalis"],"Location":[null],"Provider":null,"Title":"Seasonal Abundance
        of both Pearl River and Stone County in 2020","Tags":null,"Sites":[null],"Collections":11,"Years":["2020"],"CollectionMethods":["Sticky
        Trap"],"EmbargoReleaseDate":""},{"Id":393,"SpeciesName":["Glossina morsitans"],"Location":[null],"Provider":null,"Title":"Tsetse
        Fly Capture Numbers in Tsetse Belt of Zambia (2021-2022)","Tags":null,"Sites":[null],"Collections":1020,"Years":["2021","2022"],"CollectionMethods":["VST"],"EmbargoReleaseDate":""},{"Id":394,"SpeciesName":["Chaetocnema
        pulicaria"],"Location":[null],"Provider":null,"Title":"Corn Flea Beetle Collection
        in 4 Illinois Towns (2001-2002)","Tags":null,"Sites":[null],"Collections":148,"Years":["2001","2002"],"CollectionMethods":["Yellow
        Sticky Trap"],"EmbargoReleaseDate":""},{"Id":395,"SpeciesName":["Glossina
        morsitans centralis"],"Location":[null],"Provider":null,"Title":"Glossina
        morsitans Collection in Zambia (2021-2022)","Tags":null,"Sites":[null],"Collections":692,"Years":["2021","2022"],"CollectionMethods":["VST"],"EmbargoReleaseDate":""},{"Id":396,"SpeciesName":["Aphids
        spp.","Eurybrachid bug spp.","Leafhoppers spp.","Pentatomid bug spp.","Thrips
        spp."],"Location":[null],"Provider":null,"Title":"Number of Recorded Sucking
        Insect Pests","Tags":null,"Sites":[null],"Collections":14,"Years":["2010"],"CollectionMethods":["Quadrat
        count"],"EmbargoReleaseDate":""},{"Id":397,"SpeciesName":["Haplaxius Haplaxius
        crudus"],"Location":[null],"Provider":null,"Title":"Population Amount of Haplaxius
        crudus in Coconut Amazon","Tags":null,"Sites":[null],"Collections":12,"Years":["2017","2018"],"CollectionMethods":["Sticky
        traps"],"EmbargoReleaseDate":""},{"Id":398,"SpeciesName":["Chaetocnema pulicaria"],"Location":[null],"Provider":null,"Title":"Corn
        Beetle Captures in Three Iowa Towns (1999-2000)","Tags":null,"Sites":[null],"Collections":93,"Years":["2000","1999"],"CollectionMethods":["Yellow
        Sticky Trap"],"EmbargoReleaseDate":""},{"Id":399,"SpeciesName":["Chaetocnema
        pulicaria"],"Location":[null],"Provider":null,"Title":"Corn Beetle Captures
        in Eight Iowa Towns (1999-2000)","Tags":null,"Sites":[null],"Collections":229,"Years":["2000","1999"],"CollectionMethods":["Field
        Sweeps"],"EmbargoReleaseDate":""},{"Id":400,"SpeciesName":["Helicoverpa armigera","Helicoverpa
        punctigera"],"Location":[null],"Provider":null,"Title":"Owlet Moth Captures
        in New South Wales, Australia (1985-1989)","Tags":null,"Sites":[null],"Collections":20,"Years":["1985","1986","1987","1988","1989"],"CollectionMethods":["Light
        Tower Trap"],"EmbargoReleaseDate":""},{"Id":401,"SpeciesName":["Aleurotuberculatus
        takabashi","Eretmocerus longipes"],"Location":[null],"Provider":null,"Title":"Whitefly
        Collection in Citrus Orchard of Jianxing, China (1996)","Tags":null,"Sites":[null],"Collections":10,"Years":["1996"],"CollectionMethods":["Random
        leaf sampling"],"EmbargoReleaseDate":""},{"Id":402,"SpeciesName":["Aleurotuberculatus
        takabashi","Eretmocerus longipes"],"Location":[null],"Provider":null,"Title":"Whitefly
        Collection in Jasmine Field of Jianxing, China (1996)","Tags":null,"Sites":[null],"Collections":10,"Years":["1996"],"CollectionMethods":["Random
        leaf sampling"],"EmbargoReleaseDate":""},{"Id":403,"SpeciesName":["Bemisia
        argentifolii, Trialeurodes abutilonea"],"Location":[null],"Provider":null,"Title":"Whitefly
        Collection in Braxton Soybeans (1993-1994)","Tags":null,"Sites":[null],"Collections":21,"Years":["1993","1994"],"CollectionMethods":["Random
        crop sampling"],"EmbargoReleaseDate":""},{"Id":404,"SpeciesName":["Bemisia
        argentifolii, Trialeurodes abutilonea"],"Location":[null],"Provider":null,"Title":"Whitefly
        Collection in Cobb Soybeans (1993-1994)","Tags":null,"Sites":[null],"Collections":21,"Years":["1993","1994"],"CollectionMethods":["Random
        crop sampling"],"EmbargoReleaseDate":""},{"Id":405,"SpeciesName":["Trialeurodes
        vaporariorum"],"Location":[null],"Provider":null,"Title":"Whitefly Collections
        in Crop Fields near Oxnard and Ventura (2000-2001)","Tags":null,"Sites":[null],"Collections":51,"Years":["2000","2001"],"CollectionMethods":["Random
        sampling"],"EmbargoReleaseDate":""},{"Id":406,"SpeciesName":["Bactericera
        cockerelli"],"Location":[null],"Provider":null,"Title":"Captures of Bactericera
        cockerelli in Moxee, Washington (2005)","Tags":null,"Sites":[null],"Collections":14,"Years":["2005"],"CollectionMethods":["Heavy
        Duty Sweep Nets"],"EmbargoReleaseDate":""},{"Id":407,"SpeciesName":["Bactericera
        cockerelli"],"Location":[null],"Provider":null,"Title":"Captures of Bactericera
        cockerelli in Moxee, Washington (2006)","Tags":null,"Sites":[null],"Collections":16,"Years":["2006"],"CollectionMethods":["Heavy
        Duty Sweep Nets"],"EmbargoReleaseDate":""},{"Id":408,"SpeciesName":["Bactericera
        cockerelli"],"Location":[null],"Provider":null,"Title":"Captures of Bactericera
        cockerelli in Moxee, Washington (2007)","Tags":null,"Sites":[null],"Collections":16,"Years":["2007"],"CollectionMethods":["Heavy
        Duty Sweep Nets"],"EmbargoReleaseDate":""},{"Id":409,"SpeciesName":["Bactericera
        cockerelli"],"Location":[null],"Provider":null,"Title":"Captures of Bactericera
        cockerelli in Moxee, Washington (2008)","Tags":null,"Sites":[null],"Collections":17,"Years":["2008"],"CollectionMethods":["Heavy
        Duty Sweep Nets"],"EmbargoReleaseDate":""},{"Id":410,"SpeciesName":["Bactericera
        cockerelli"],"Location":[null],"Provider":null,"Title":"Captures of Bactericera
        cockerelli in Prosser, Washington (2008)","Tags":null,"Sites":[null],"Collections":16,"Years":["2008"],"CollectionMethods":["Heavy
        Duty Sweep Nets"],"EmbargoReleaseDate":""}]},"ids":[216,217,218,219,220,221,222,223,349,350,351,352,353,354,355,356,361,362,363,364,365,366,367,368,369,370,371,372,373,374,390,391,393,394,395,396,397,398,399,400,401,402,403,404,405,406,407,408,409,410,411,412,413,414,415,416,417,418,419,420,421,422,423,424,425,426,427,428,429,430,431,432,433,434,435,436,437,438,439,440,441,442,443,444,445,446,447,448,449,450,451,452,453,454,471,472,473,474,475,499,500,504,520,521,522,523,524,525,526,527,528,529,530,531,532,533,534,535,536,537,538,539,540,541,542,543,544,545,546,547,548,549,551,552,556,557,558,559,560,585,586,589,590,591,595,596,597,598,599,600,601,602,604,605,606,607,608,609,610,611,612,613,614,615,616,617,618,619,620,621,622,623,624,625,626,627,628,629,630,631,632,633,634,635,636,637,638,639,640,641,642,643,644,645,646,647,648,649,650,651,652,653,654,655,656,657,658,659,660,661,662,663,664,665,666,667,668,669,670,671,672,673,674,675,676,677,678,679,680,681,682,686,687,689,690,691,692,693,694,695,696,697,698,699,700,701,702,703,704,705,706,707,708,709,710,711,712,713,714,715,717,718,719,720,721,722,723,724,725,726,727,728,729,730,731,732,733,734,735,736,737,738,739,740,741,742,743,744,745,746,747,748,749,750,751,752,753,754,755,756,757,758,759,760,761,762,763,764,765,766,767,768,769,770,771,772,773,774,775,776,777,778,779,780,781,782,783,784,785,786,787,788,789,790,791,792,793,794,795,796,797,798,799,800,801,802,803,804,805,806,807,808,809,810,811,812,813,814,815,816,817,818,819,820,821,822,823,824,825,826,827,828,829,830,831,832,833,834,835,836,837,838,839,840,841,842,843,844,845,846,847,848,849,850,851,852,853,854,855,856,857,858,859,860,861,862,863,864,865,866,867,868,869,870,871,872,873,874,875,876,877,878,879,880,881,882,883,884,885,886,887,888,889,890,891,892,893,894,895,896,897,898,899,900,901,902,903,904,905,906,907,908,909,943,944,945,946,947,948,949,950,955,961,26981,26982,26983,26997]}'
  recorded_at: 2025-10-10 10:41:45
recorded_with: VCR-vcr/2.0.0
